simulation/qsim/adder.msim.vcd
$comment
	File created using the following command:
		vcd file adder.msim.vcd -direction
$end
$date
	Sat Oct 16 16:26:38 2021
$end
$version
	ModelSim Version 2020.1
$end
$timescale
	1ps
$end

$scope module adder_vlg_vec_tst $end
$var reg 4 ! a [3:0] $end
$var reg 4 " b [3:0] $end
$var wire 1 # out [3] $end
$var wire 1 $ out [2] $end
$var wire 1 % out [1] $end
$var wire 1 & out [0] $end

$scope module i1 $end
$var wire 1 ' gnd $end
$var wire 1 ( vcc $end
$var wire 1 ) unknown $end
$var tri1 1 * devclrn $end
$var tri1 1 + devpor $end
$var tri1 1 , devoe $end
$var wire 1 - ~QUARTUS_CREATED_GND~I_combout $end
$var wire 1 . a[2]~input_o $end
$var wire 1 / b[2]~input_o $end
$var wire 1 0 b[3]~input_o $end
$var wire 1 1 b[0]~input_o $end
$var wire 1 2 a[1]~input_o $end
$var wire 1 3 b[1]~input_o $end
$var wire 1 4 a[0]~input_o $end
$var wire 1 5 inst1|inst4~combout $end
$var wire 1 6 a[3]~input_o $end
$var wire 1 7 inst3|inst1~combout $end
$var wire 1 8 inst2|inst1~combout $end
$var wire 1 9 inst1|inst1~combout $end
$var wire 1 : inst|inst~combout $end
$upscope $end
$upscope $end
$enddefinitions $end
#0
$dumpvars
b111 !
b111 "
0&
1%
1$
1#
0'
1(
x)
1*
1+
1,
0-
1.
1/
00
11
12
13
14
15
06
17
18
19
0:
$end
#10000
b1111 !
b1011 !
b1001 !
b1000 !
b11 "
b10 "
01
0/
04
02
0.
16
05
08
0$
#20000
b0 "
b0 !
06
03
09
07
0#
0%
#30000
b10 !
b11 !
b100 "
1/
14
12
19
18
1:
1&
1$
1%
#40000
b10 !
b0 "
0/
04
0:
08
0$
0&
#50000
b1000 "
b0 !
02
10
17
09
0%
1#
#60000
b100 !
b1100 !
b1101 !
b0 "
b1111 !
00
14
12
1.
16
18
19
1:
1&
1%
1$
#70000
b1011 !
b11 !
b10 !
b0 !
04
02
0.
06
07
08
09
0:
0&
0%
0$
0#
