EU/simulation/qsim/source.msim.vcd
$comment
	File created using the following command:
		vcd file source.msim.vcd -direction
$end
$date
	Sat Oct 30 14:35:08 2021
$end
$version
	ModelSim Version 2020.1
$end
$timescale
	1ps
$end

$scope module source_vlg_vec_tst $end
$var reg 4 ! A [3:0] $end
$var reg 4 " B [3:0] $end
$var reg 4 # C [3:0] $end
$var reg 4 $ In [3:0] $end
$var reg 4 % s [3:0] $end
$var wire 1 & outA [3] $end
$var wire 1 ' outA [2] $end
$var wire 1 ( outA [1] $end
$var wire 1 ) outA [0] $end
$var wire 1 * outB [3] $end
$var wire 1 + outB [2] $end
$var wire 1 , outB [1] $end
$var wire 1 - outB [0] $end

$scope module i1 $end
$var wire 1 . gnd $end
$var wire 1 / vcc $end
$var wire 1 0 unknown $end
$var tri1 1 1 devclrn $end
$var tri1 1 2 devpor $end
$var tri1 1 3 devoe $end
$var wire 1 4 ~QUARTUS_CREATED_GND~I_combout $end
$var wire 1 5 C[3]~input_o $end
$var wire 1 6 In[3]~input_o $end
$var wire 1 7 A[3]~input_o $end
$var wire 1 8 s[2]~input_o $end
$var wire 1 9 s[3]~input_o $end
$var wire 1 : B[3]~input_o $end
$var wire 1 ; inst|inst2|$00000|auto_generated|l1_w3_n0_mux_dataout~0_combout $end
$var wire 1 < A[2]~input_o $end
$var wire 1 = C[2]~input_o $end
$var wire 1 > In[2]~input_o $end
$var wire 1 ? B[2]~input_o $end
$var wire 1 @ inst|inst2|$00000|auto_generated|l1_w2_n0_mux_dataout~0_combout $end
$var wire 1 A C[1]~input_o $end
$var wire 1 B In[1]~input_o $end
$var wire 1 C B[1]~input_o $end
$var wire 1 D A[1]~input_o $end
$var wire 1 E inst|inst2|$00000|auto_generated|l1_w1_n0_mux_dataout~0_combout $end
$var wire 1 F C[0]~input_o $end
$var wire 1 G B[0]~input_o $end
$var wire 1 H A[0]~input_o $end
$var wire 1 I In[0]~input_o $end
$var wire 1 J inst|inst2|$00000|auto_generated|l1_w0_n0_mux_dataout~0_combout $end
$var wire 1 K s[0]~input_o $end
$var wire 1 L s[1]~input_o $end
$var wire 1 M inst1|inst2|$00000|auto_generated|l1_w3_n0_mux_dataout~0_combout $end
$var wire 1 N inst1|inst2|$00000|auto_generated|l1_w2_n0_mux_dataout~0_combout $end
$var wire 1 O inst1|inst2|$00000|auto_generated|l1_w1_n0_mux_dataout~0_combout $end
$var wire 1 P inst1|inst2|$00000|auto_generated|l1_w0_n0_mux_dataout~0_combout $end
$upscope $end
$upscope $end
$enddefinitions $end
#0
$dumpvars
b1 !
b10 "
b100 #
b1000 $
b0 %
1)
0(
0'
0&
1-
0,
0+
0*
0.
1/
x0
11
12
13
04
05
16
07
08
09
0:
0;
0<
1=
0>
0?
0@
0A
0B
1C
0D
0E
0F
0G
1H
0I
1J
0K
0L
0M
0N
0O
1P
$end
#100000
b1 %
1K
0P
1O
1,
0-
#200000
b11 %
b10 %
0K
1L
0O
1N
1+
0,
#300000
b11 %
1K
0N
1M
1*
0+
#400000
b111 %
b101 %
b100 %
0K
0L
18
0J
1E
1P
0M
0*
1-
1(
0)
#500000
b1100 %
b1000 %
08
19
0E
1@
1'
0(
#600000
b1100 %
18
0@
1;
1&
0'
#700000
b1101 %
b1001 %
1K
08
1@
0;
0P
1O
1,
0-
0&
1'
#800000
b1011 %
b11 %
b10 %
b110 %
0K
1L
18
09
1E
0@
0O
1N
1+
0,
0'
1(
#900000
b1110 %
b1111 %
1K
19
0E
1;
0N
1M
1*
0+
1&
0(
